{
  "EDITOR_STATE": {
    "allProjectFiles": {
      "5fadf8e4-eb05-4eca-8555-214b03670396": {
        "id": "5fadf8e4-eb05-4eca-8555-214b03670396",
        "parent": null,
        "name": "pub-sub",
        "type": "DIRECTORY",
        "isDirectory": true,
        "children": [
          "5767a2f6-a3c9-4b57-bacf-3f7ed617b690",
          "e42d50b8-3844-45a8-b064-13b74269198e"
        ],
        "isRemovable": false,
        "filePath": "pub-sub"
      },
      "5767a2f6-a3c9-4b57-bacf-3f7ed617b690": {
        "id": "5767a2f6-a3c9-4b57-bacf-3f7ed617b690",
        "parent": "5fadf8e4-eb05-4eca-8555-214b03670396",
        "name": "function.js",
        "type": "JS_LAMBDA",
        "isDirectory": false,
        "children": [],
        "isRemovable": true,
        "filePath": "pub-sub/function.js",
        "code": "let google = require('googleapis').google;\nlet _auth = require('./Authorizer');\nconst pubsub = google.pubsub('v1');\n\nexports.handler = function (request, response) {\n    pubsub.projects.topics.subscriptions.list({\n        topic: `projects/${process.env.GCP_PROJECT}/topics/hirutest`,\n        pageSize: 10\n    })\n        .then(response => {\n            console.log(response.data);\n            //response.send({ \"message\": response }); // successful response\n            /*\n            response.data = {\n                \"subscriptions\": [\n                    \"projects/<project>/subscriptions/<subscription-1>\",\n                    \"projects/<project>/subscriptions/<subscription-2>\",\n                    ...\n                ]\n            }\n            */\n        })\n        .catch(err => {\n            console.log(err, err.stack);\n            //response.send({ \"error\": err }); // an error occurred\n        });\n\n    pubsub.projects.subscriptions.create({\n        name: `projects/${process.env.GCP_PROJECT}/subscriptions/sample`,\n        resource: {\n            \"topic\": `projects/${process.env.GCP_PROJECT}/topics/createtopic`,\n            \"retainAckedMessages\": false,\n            \"messageRetentionDuration\": \"86400s\",\n            \"ackDeadlineSeconds\": 10\n        }\n    })\n        .then(response => {\n            console.log(response.data);           // successful response\n            /*\n            response.data = {\n                \"name\": \"projects/<project>/subscriptions/<subscription>\",\n                \"topic\": \"projects/<project>/topics/<topic>\",\n                \"pushConfig\": {\n                    \"pushEndpoint\": \"<push-url>\"\n                },\n                \"ackDeadlineSeconds\": 10,\n                \"messageRetentionDuration\": \"600s\"\n            }\n            */\n        })\n        .catch(err => {\n            console.log(err, err.stack); // an error occurred\n        });\n\n\n    response.send({ \"Message123\": \"Message\" });\n}",
        "config": {
          "runtime": "nodejs8",
          "timeout": 60,
          "memory": 128,
          "triggerType": 0
        },
        "triggers": [
          {
            "resourceName": "http-trigger",
            "config": {}
          }
        ],
        "testCases": {
          "778ac46e-deb1-4770-9eb9-dc74bf81f458": {
            "id": "778ac46e-deb1-4770-9eb9-dc74bf81f458",
            "name": "Unnamed event",
            "functionId": "5767a2f6-a3c9-4b57-bacf-3f7ed617b690",
            "event": "{\n    \"key1\": \"value1\",\n    \"key2\": \"value2\",\n    \"key3\": \"value3\"\n}"
          }
        }
      },
      "c367788b-59af-4bde-a98e-163929fb68ca": {
        "id": "c367788b-59af-4bde-a98e-163929fb68ca",
        "parent": null,
        "name": "index.js",
        "type": "JS_FILE",
        "isDirectory": false,
        "children": [],
        "isRemovable": false,
        "filePath": "index.js",
        "code": "// This file is used to register all your cloud functions in GCP.\n// DO NOT EDIT/DELETE THIS, UNLESS YOU KNOW WHAT YOU ARE DOING.\n\nexports.pubSubfunction = require(\"./pub-sub/function.js\").handler;"
      },
      "e42d50b8-3844-45a8-b064-13b74269198e": {
        "id": "e42d50b8-3844-45a8-b064-13b74269198e",
        "parent": "5fadf8e4-eb05-4eca-8555-214b03670396",
        "name": "Authorizer.js",
        "type": "JS_FILE",
        "isDirectory": false,
        "children": [],
        "isRemovable": true,
        "filePath": "pub-sub/Authorizer.js",
        "code": "const google = require(\"googleapis\").google;\n\ngoogle.options({auth: new google.auth.Compute()});"
      }
    },
    "deletedFiles": [],
    "rootNode": "5fadf8e4-eb05-4eca-8555-214b03670396",
    "openFiles": [
      "5767a2f6-a3c9-4b57-bacf-3f7ed617b690"
    ],
    "currentFileId": "5767a2f6-a3c9-4b57-bacf-3f7ed617b690",
    "resources": {
      "http-trigger": {
        "name": "http-trigger",
        "type": "http-trigger",
        "config": {}
      },
      "pubsubhirutest": {
        "name": "pubsubhirutest",
        "type": "pubsub",
        "config": {
          "mode": 1,
          "topic": {
            "name": "hirutest",
            "subscriptions": []
          }
        }
      },
      "pubsubcreatetopic": {
        "name": "pubsubcreatetopic",
        "type": "pubsub",
        "config": {
          "mode": 0,
          "topic": {
            "name": "createtopic",
            "subscriptions": [
              "sample"
            ]
          }
        }
      }
    },
    "customTemplate": {
      "dialect": null,
      "definitions": {}
    },
    "envVariables": [],
    "packageJSON": {
      "dependencies": {
        "googleapis": {
          "name": "googleapis",
          "language": "javascript",
          "version": "29.0.0",
          "dev": false,
          "notRemovable": false
        }
      }
    }
  },
  "PROJECT_META": {
    "projectName": "pub-sub",
    "projectDescription": "test for pub sub permissions",
    "projectVersion": "1.0.0",
    "projectRegion": "us-east1",
    "platform": "GCP",
    "platformRegions": {},
    "lastSave": 1560337733135
  },
  "VCS_STATE": {
    "provider": "BitBucket",
    "repo": {
      "name": "pub-sub",
      "url": "https://bitbucket.org/hirudineeliyanage/pub-sub"
    }
  }
}